{
  "gitzone": {
    "projectType": "npm",
    "module": {
      "githost": "gitlab.com",
      "gitscope": "mojoio",
      "gitrepo": "letterxpress",
      "description": "an unofficial API package for the letterxpress API",
      "npmPackagename": "@mojoio/letterxpress",
      "license": "MIT",
      "projectDomain": "mojo.io"
    }
  },
  "npmci": {
    "npmGlobalTools": [],
    "npmAccessLevel": "public"
  }
}